Igniting full-length isoform and mutation analysis of single-cell RNA-seq data with FLAMES • IgniteRNAseq
…
## 10:12:44 Reading reference ...

## 10:12:45 Reading annotation ...

## 10:12:45 Got 1 bam file, parallelizing over each region ...

## 10:13:37 Merging results ...

## 10:13:37 Calculating homopolymer percentages ...

mutation_discovery_tb

## # A tibble: 1,088 × 10
##    seqnames   pos nucleotide count    sum     freq ref   bam_path   region homopolymer_pct
##    <fct>    <dbl> <fct>      <int>  <dbl>    <dbl> <fct> <chr>      <chr>            <dbl>
##  1 chrM      7021 +           1553 249499 0.00622  T     filtered_… MT-CO1           0.333
##  2 chrM      7020 -           1888 249484 0.00757  G     filtered_… MT-CO1           0.5  
##  3 chrM      7020 A           1632 249484 0.00654  G     filtered_… MT-CO1           0.5  
##  4 chrM      7020 C            117 249484 0.000469 G     filtered_… MT-CO1           0.5  
##  5 chrM      7020 T            457 249484 0.00183  G     filtered_… MT-CO1           0.5  
##  6 chrM      7022 +            565 249539 0.00226  T     filtered_… MT-CO1           0.333
##  7 chrM      7021 -           2293 249499 0.00919  T     filtered_… MT-CO1           0.333
##  8 chrM      7021 A            432 249499 0.00173  T     filtered_… MT-CO1           0.333
##  9 chrM      7021 C           2509 249499 0.0101   T     filtered_… MT-CO1           0.333
## 10 chrM      7021 G           1160 249499 0.00465  T     filtered_… MT-CO1           0.333
## # ℹ 1,078 more rows
…
